%YAML 1.1
%TAG !u! tag:unity3d.com,2011:
--- !u!21 &2100000
Material:
  serializedVersion: 6
  m_ObjectHideFlags: 0
  m_PrefabParentObject: {fileID: 0}
  m_PrefabInternal: {fileID: 0}
  m_Name: Rail_MAT
  m_Shader: {fileID: 4800000, guid: 1f1d07d828aa50640a0d5e86178ab15e, type: 3}
  m_ShaderKeywords: 
  m_LightmapFlags: 4
  m_EnableInstancingVariants: 0
  m_DoubleSidedGI: 0
  m_CustomRenderQueue: -1
  stringTagMap: {}
  disabledShaderPasses: []
  m_SavedProperties:
    serializedVersion: 3
    m_TexEnvs:
    - _MainTex:
        m_Texture: {fileID: 2800000, guid: 87ec1f79bc2d0c148927d4d58ae1c30a, type: 3}
        m_Scale: {x: 1, y: 1}
        m_Offset: {x: 0, y: 0}
    m_Floats:
    - _Shininess: 0.035435915
    m_Colors:
    - _Color: {r: 0.6037736, g: 0.6037736, b: 0.6037736, a: 1}
    - _SpecColor: {r: 0.5, g: 0.5, b: 0.5, a: 1}
--- !u!1002 &2100001
EditorExtensionImpl:
  serializedVersion: 6
